<!-- Generated by IcoMoon.io -->
<svg version="1.1" xmlns="http://www.w3.org/2000/svg" width="512" height="512" viewBox="0 0 512 512">
<title></title>
<g id="icomoon-ignore">
</g>
<path fill="#000" d="M75.369 510.812c-8.574-2.632-14.459-7.684-18.376-15.774-3.815-7.88-3.833-9.096-3.347-221.857l0.488-213.934 5.192-6.807c8.369-10.972 10.13-11.422 48.763-12.438l35.349-0.93 1.103-10.233c1.335-12.381 5.317-20.579 12.29-25.306 4.948-3.354 9.957-3.532 99.167-3.532s94.219 0.178 99.168 3.532c6.973 4.726 10.955 12.925 12.29 25.306l1.103 10.233 35.349 0.93c38.633 1.017 40.393 1.465 48.763 12.438l5.192 6.807 0.488 213.934c0.488 213.482 0.481 213.951-3.388 221.941-2.284 4.717-6.688 9.756-10.721 12.264l-6.845 4.257-178.609 0.324c-98.235 0.178-180.774-0.341-183.421-1.153zM431.666 487.255c2.659-1.021 2.943-21.351 2.943-211.102 0-207.429-0.042-209.998-3.688-211.947-2.278-1.219-14.898-1.778-33.024-1.461l-29.337 0.513-1.144 9.374c-1.665 13.641-6.135 21.008-15.259 25.151-7.296 3.313-13.315 3.534-96.158 3.534s-88.862-0.222-96.158-3.534c-9.124-4.142-13.594-11.51-15.258-25.15l-1.144-9.374-29.337-0.513c-18.126-0.316-30.746 0.242-33.024 1.461-3.642 1.95-3.688 4.517-3.688 211.991 0 166.273 0.484 210.213 2.326 210.956 3.352 1.353 348.43 1.454 351.95 0.103zM127.573 420.127c-6.128-4.183-24.71-19.632-26.433-21.977-2.537-3.454-1.447-11.496 1.978-14.596 5.76-5.213 12.17-3.692 23.397 5.55 9.42 7.755 10.807 8.356 13.703 5.933 1.772-1.483 8.663-7.324 15.315-12.98s13.569-10.816 15.371-11.465c4.42-1.592 12.201 2.171 13.599 6.578 2.306 7.267-1.466 12.517-20.925 29.113-21.433 18.281-26.595 20.265-36.004 13.843zM219.719 408.94c-8.292-1.942-11.33-14.048-4.97-19.805 3.071-2.779 12.544-3.079 97.388-3.079 88.69 0 94.159 0.192 97.065 3.402 3.217 3.555 4.023 10.838 1.618 14.621-3.562 5.602-12.912 6.161-99.592 5.947-48.284-0.119-89.463-0.608-91.509-1.087zM130.535 312.474c-5.727-2.973-24.503-18.073-28.493-22.914-3.743-4.541-2.816-12.719 1.809-15.959 6.297-4.411 9.424-3.615 21.518 5.476 6.126 4.605 11.598 8.373 12.159 8.373s7.826-5.861 16.142-13.024c16.166-13.924 22.672-16.116 28.549-9.621 6.772 7.483 4.244 12.252-15.685 29.582-10.321 8.976-19.739 16.846-20.931 17.489-5.601 3.026-10.052 3.202-15.070 0.598zM215.482 297.577c-2.889-2.024-4.135-4.795-4.135-9.197 0-12.381-2.388-12.094 100.468-12.094s100.468-0.288 100.468 12.094c0 12.381 2.388 12.094-100.467 12.094-80.435 0-92.725-0.369-96.332-2.897zM130.415 203.357c-2.047-1.164-9.791-7.053-17.209-13.087-11.919-9.694-13.489-11.702-13.489-17.257 0-6.567 5.174-12.079 11.34-12.079 1.689 0 8.288 4.172 14.666 9.27l11.597 9.27 15.881-13.922c10.15-8.899 17.464-13.922 20.269-13.922 5.774 0 11.831 6.237 11.831 12.182 0 5.226-2.142 7.486-26.576 28.031-16.46 13.84-20.982 15.679-28.31 11.512zM214.426 187.3c-3.962-4.377-3.963-14.013-0.002-17.3 2.519-2.090 20.253-2.554 97.827-2.554 91.645 0 94.837 0.118 97.391 3.612 3.663 5.009 3.3 12.89-0.762 16.566-3.072 2.78-12.544 3.079-97.389 3.079-88.69 0-94.159-0.192-97.065-3.403zM343.443 50.234v-26.977h-174.888v53.955h174.888z"></path>
</svg>
