<!-- Generated by IcoMoon.io -->
<svg version="1.1" xmlns="http://www.w3.org/2000/svg" width="512" height="512" viewBox="0 0 512 512">
<title></title>
<g id="icomoon-ignore">
</g>
<path fill="#000" d="M79.273 510.038c-8.697-3.133-13.587-6.62-18.723-13.354-9.237-12.111-8.87-4.127-8.949-194.671-0.082-198.986-0.747-188.025 12.197-200.969 12.192-12.192 5.309-11.648 147.53-11.648h127.517l8.217 4.229c9.377 4.826 18.113 15.269 20.648 24.682 1.166 4.328 1.585 64.924 1.286 185.759-0.423 171.332-0.58 179.595-3.529 185.13-4.32 8.11-10.687 14.594-18.435 18.776-6.603 3.563-6.99 3.574-134.095 3.935-103.439 0.293-128.64-0.057-133.666-1.869zM336.877 480.798l4.362-3.431v-353.794l-4.362-3.431c-4.324-3.401-5.44-3.431-126.72-3.431h-122.358l-8.127 8.127v352.529l4.362 3.431c4.323 3.401 5.444 3.431 126.421 3.431s122.098-0.031 126.422-3.431zM416.323 421.826c-14.106-2.738-11.332-26.993 3.088-26.993 2.839 0 6.389-1.636 8.817-4.063l4.063-4.063v-352.529l-4.362-3.431c-4.324-3.401-5.435-3.431-127.184-3.431h-122.822l-3.395 3.725c-1.868 2.048-3.887 6.486-4.489 9.861-1.163 6.526-7.442 12.901-12.704 12.901-22.84 0-17.274-36.81 7.595-50.23l6.622-3.573h259.911l7.373 4.139c8.611 4.834 17.434 15.697 19.868 24.46 1.13 4.069 1.716 65.905 1.722 181.762 0.012 192.637 0.361 185.609-9.874 197.982-7.615 9.207-23.673 15.533-34.228 13.483z"></path>
</svg>
