<!-- Generated by IcoMoon.io -->
<svg version="1.1" xmlns="http://www.w3.org/2000/svg" width="512" height="512" viewBox="0 0 512 512">
<title></title>
<g id="icomoon-ignore">
</g>
<path fill="#000" d="M261.487 460.301c-7.113-1.957-1.594 1.248-76.472-44.418-43.637-26.613-61.599-38.215-62.613-40.442-0.999-2.193-1.424-19.776-1.424-59.051v-55.927l-12.148-7.363c-6.682-4.049-22.382-13.614-34.889-21.255l-22.74-13.892v80.38l6.102 2.167c8.285 2.942 17.897 11.865 22.183 20.594l3.489 7.106 0.715 120.607-5.51 5.865h-71.949l-6.229-6.229 0.736-119.055 4.102-8.329c4.581-9.3 11.126-15.67 20.42-19.87l6.006-2.714v-50.727c0-46.507 0.181-50.94 2.18-53.282 3.188-3.736 233.335-143.877 237.293-144.493 2.637-0.41 11.517 4.449 41.743 22.844 48.181 29.322 46.492 28.079 46.492 34.186 0 3.734-0.745 5.416-3.283 7.412-1.806 1.42-4.478 2.582-5.938 2.582s-19.633-10.364-40.385-23.031l-37.73-23.031-104.884 64.034c-57.686 35.219-105.037 64.507-105.225 65.084-0.458 1.408 207.34 128.146 210.106 128.146 2.224 0 210.604-126.478 210.663-127.863 0.019-0.423-16.173-10.667-35.98-22.767s-36.348-22.875-36.758-23.943c-2.644-6.892 1.86-14.238 8.68-14.156 2.532 0.028 17.258 8.384 47.859 27.148 39.95 24.498 44.313 27.495 45.367 31.168 0.943 3.291 0.708 4.676-1.238 7.283-1.322 1.771-20.459 14.22-42.527 27.663l-40.124 24.444-0.075 118.562-2.803 2.526c-1.542 1.389-31.4 19.963-66.351 41.274-67.014 40.861-70.769 42.746-84.68 42.499-3.454-0.061-8.935-0.842-12.18-1.736zM285.115 440.304c2.51-1.049 20.429-11.563 39.82-23.363l35.256-21.457 0.014-14.872c0.014-13.544 0.255-15.13 2.723-17.756 3.314-3.527 9.564-3.821 13.5-0.634 2.266 1.835 2.897 3.906 3.421 11.214 0.353 4.93 0.803 8.964 1 8.964s6.57-3.718 14.162-8.262l13.804-8.262v-47.81c0-30.545-0.443-47.81-1.227-47.81-0.675 0-30.774 18.036-66.887 40.081-43.63 26.633-66.794 40.081-69.041 40.081-2.24 0-23.885-12.507-64.133-37.060-33.413-20.383-62.070-37.923-63.68-38.978l-2.928-1.919v93.541l60.374 36.875c33.206 20.282 61.663 37.392 63.236 38.024 4.514 1.812 15.589 1.488 20.589-0.601zM363.276 335.732c-6.291-6.291-2.248-15.632 6.765-15.632 6.69 0 9.529 3.633 9.010 11.526-0.447 6.794-10.477 9.405-15.776 4.106zM64.616 402.026l0.332-33.332h-44.898v67.344l44.234-0.68zM64.877 344.086c-0.104-16.342-8.587-26.478-22.162-26.478-13.899 0-22.666 9.308-22.666 24.068v7.082h44.857l-0.028-4.673zM267.88 209.048c-6.258-2.273-7.897-10.62-3.040-15.477 4.911-4.911 11.961-3.968 15.055 2.014 2.483 4.802 2.3 6.723-0.981 10.332-3.41 3.751-6.731 4.694-11.034 3.131zM380.553 136.835c-3.408-1.261-6.628-5.917-6.628-9.582 0-3.804 5.308-9.011 9.187-9.011 4.769 0 6.949 1.247 8.954 5.124 4.044 7.82-3.361 16.484-11.512 13.47z"></path>
</svg>
