<!-- Generated by IcoMoon.io -->
<svg version="1.1" xmlns="http://www.w3.org/2000/svg" width="512" height="512" viewBox="0 0 512 512">
<title></title>
<g id="icomoon-ignore">
</g>
<path fill="#000" d="M121.278 511.249c-13.112-2.575-24.258-13.95-26.799-27.35-1.125-5.931-1.075-364.798 0.052-370.942 2.352-12.829 13.153-24.058 25.986-27.017 1.844-0.425 8.042-0.781 13.775-0.791l10.423-0.017 0.868-5.156c1.169-6.946 4.696-13.927 9.471-18.745 7.678-7.748 15.793-10.432 31.599-10.455l9.321-0.014 0.41-2.864c2.41-16.831 5.475-23.646 14.892-33.106 5.011-5.034 7.871-7.215 12.263-9.348 10.118-4.915 13.497-5.476 32.842-5.442 16.582 0.029 17.399 0.102 23.295 2.081 15.58 5.231 27.524 16.619 32.868 31.341 0.958 2.639 1.961 6.502 2.228 8.586s0.659 4.905 0.869 6.27l0.383 2.482 9.322 0.014c15.772 0.023 23.758 2.661 31.552 10.427 4.786 4.767 8.342 11.782 9.519 18.774l0.868 5.156 10.423 0.017c5.733 0.011 11.931 0.367 13.775 0.791 12.833 2.959 23.634 14.188 25.986 27.016 1.127 6.144 1.176 365.010 0.051 370.942-2.601 13.717-13.68 24.795-27.397 27.397-5.104 0.968-263.907 0.924-268.846-0.046zM393.266 492.77c2.339-1.375 4.353-3.389 5.728-5.728l2.12-3.608v-368.898l-1.644-3.055c-2.113-3.925-4.391-6.017-8.666-7.956-2.892-1.311-5.027-1.561-13.478-1.575l-10.041-0.017-0.868 5.156c-2.41 14.32-13.539 25.848-27.462 28.446-5.596 1.044-160.315 1.044-165.911 0-13.951-2.603-25.050-14.124-27.474-28.514l-0.88-5.224-11.175 0.259c-10.241 0.237-11.46 0.419-14.581 2.168-2.179 1.222-4.242 3.263-5.728 5.668l-2.323 3.759v369.017l2.103 3.578c2.293 3.901 5.357 6.434 9.647 7.976 2.231 0.801 28.127 0.961 134.892 0.829l132.131-0.163zM197.192 348.632l-38.181-38.188 11.832-11.832 64.914 64.901 5.227-5.341c2.875-2.938 29.741-30.193 59.703-60.569l54.476-55.227 5.601 5.564c3.080 3.060 5.601 5.844 5.601 6.185 0 0.579-129.556 132.082-130.542 132.503-0.246 0.106-17.63-16.993-38.63-37.995zM338.484 118.394c4.947-1.489 9.271-5.792 10.719-10.666 1.532-5.159 1.532-23.232 0-28.391-1.447-4.874-5.772-9.177-10.719-10.666-2.755-0.829-8.125-1.106-21.402-1.106h-17.725l-0.404-11.648c-0.563-16.233-2.827-22.072-11.818-30.48-7.598-7.105-14.216-9.023-31.135-9.023s-23.536 1.918-31.135 9.023c-8.992 8.407-11.256 14.247-11.819 30.48l-0.404 11.648h-17.708c-21.108 0-23.806 0.532-28.494 5.617-3.89 4.22-4.766 8.084-4.766 21.013 0 12.007 1.073 16.168 5.214 20.212 5.344 5.218 1.264 4.986 88.798 5.043 66.995 0.043 79.683-0.118 82.796-1.055zM250.213 65.332c-3.168-3.168-3.169-8.151-0.003-11.694 1.913-2.142 2.732-2.495 5.791-2.495s3.877 0.353 5.791 2.495c3.166 3.543 3.164 8.526-0.003 11.694-1.828 1.828-2.877 2.233-5.787 2.233s-3.959-0.404-5.787-2.233z"></path>
</svg>
