<!-- Generated by IcoMoon.io -->
<svg version="1.1" xmlns="http://www.w3.org/2000/svg" width="512" height="512" viewBox="0 0 512 512">
<title></title>
<g id="icomoon-ignore">
</g>
<path fill="#000" d="M0.038 506.687c0-16.445 3.235-40.060 8.037-58.676 11.129-43.142 32.86-81.711 64.487-114.447 25.157-26.038 58.559-48.031 92.233-60.726l7.351-2.772-1.906-1.443c-16.013-12.122-28.098-24.719-37.749-39.347-23.165-35.111-30.133-77.345-19.59-118.725 2.576-10.109 5.181-17.020 10.523-27.914 7.374-15.035 16.128-27.275 28.005-39.151 12.011-12.011 24.108-20.631 39.723-28.304 41.192-20.242 88.502-20.242 129.695 0 15.614 7.673 27.712 16.293 39.723 28.304 11.877 11.877 20.631 24.115 28.005 39.151 5.342 10.894 7.947 17.805 10.524 27.914 7.161 28.109 6.385 55.66-2.332 82.731-9.728 30.213-27.442 54.474-55.007 75.341l-1.906 1.443 7.351 2.772c33.673 12.695 67.076 34.687 92.233 60.726 42.723 44.22 67.18 98.668 71.93 160.125 0.327 4.226 0.594 10.075 0.594 12.998v5.313h-39.822l-0.341-10.142c-1.065-31.728-10.566-65.495-26.428-93.931-38.644-69.279-110.755-111.883-189.37-111.883-103.65 0-193.012 74.010-212.465 175.962-1.974 10.349-2.981 19.361-3.333 29.852l-0.34 10.142h-39.822zM269.954 255.176c48.359-6.339 86.423-44.179 93.212-92.665 1.382-9.869 0.863-26.483-1.12-35.9-9.445-44.831-45.468-79.007-90.29-85.663-7.757-1.151-23.755-1.151-31.511 0-44.822 6.656-80.845 40.833-90.29 85.663-1.984 9.416-2.502 26.030-1.12 35.9 6.744 48.166 44.657 86.111 92.548 92.626 7.834 1.066 20.603 1.083 28.572 0.038z"></path>
</svg>
